%!PS-Adobe-3.0 EPSF-3.0
%%Creator: MATLAB, The MathWorks, Inc. Version 7.13.0.564 (R2011b). Operating System: Microsoft Windows Server 2008 R2.
%%Title: C:\Users\v-jianfw\Desktop\v-jianfw\HashCode\Experiment\convergence.eps
%%CreationDate: 09/28/2012  00:51:57
%%DocumentNeededFonts: Helvetica
%%DocumentProcessColors: Cyan Magenta Yellow Black
%%LanguageLevel: 2
%%Pages: 1
%%BoundingBox:    96   238   515   553
%%EndComments

%%BeginProlog
% MathWorks dictionary
/MathWorks 160 dict begin
% definition operators
/bdef {bind def} bind def
/ldef {load def} bind def
/xdef {exch def} bdef
/xstore {exch store} bdef
% operator abbreviations
/c  /clip ldef
/cc /concat ldef
/cp /closepath ldef
/gr /grestore ldef
/gs /gsave ldef
/mt /moveto ldef
/np /newpath ldef
/cm /currentmatrix ldef
/sm /setmatrix ldef
/rm /rmoveto ldef
/rl /rlineto ldef
/s {show newpath} bdef
/sc {setcmykcolor} bdef
/sr /setrgbcolor ldef
/sg /setgray ldef
/w /setlinewidth ldef
/j /setlinejoin ldef
/cap /setlinecap ldef
/rc {rectclip} bdef
/rf {rectfill} bdef
% page state control
/pgsv () def
/bpage {/pgsv save def} bdef
/epage {pgsv restore} bdef
/bplot /gsave ldef
/eplot {stroke grestore} bdef
% orientation switch
/portraitMode 0 def /landscapeMode 1 def /rotateMode 2 def
% coordinate system mappings
/dpi2point 0 def
% font control
/FontSize 0 def
/FMS {/FontSize xstore findfont [FontSize 0 0 FontSize neg 0 0]
  makefont setfont} bdef
/ISOLatin1Encoding where {pop /WindowsLatin1Encoding 256 array bdef
ISOLatin1Encoding WindowsLatin1Encoding copy pop
/.notdef/.notdef/quotesinglbase/florin/quotedblbase/ellipsis/dagger
/daggerdbl/circumflex/perthousand/Scaron/guilsinglleft/OE/.notdef/.notdef
/.notdef/.notdef/quoteleft/quoteright/quotedblleft/quotedblright/bullet
/endash/emdash/tilde/trademark/scaron/guilsinglright/oe/.notdef/.notdef
/Ydieresis WindowsLatin1Encoding 128 32 getinterval astore pop}
{/WindowsLatin1Encoding StandardEncoding bdef} ifelse
/reencode {exch dup where {pop load} {pop StandardEncoding} ifelse
  exch dup 3 1 roll findfont dup length dict begin
  { 1 index /FID ne {def}{pop pop} ifelse } forall
  /Encoding exch def currentdict end definefont pop} bdef
/isroman {findfont /CharStrings get /Agrave known} bdef
/FMSR {3 1 roll 1 index dup isroman {reencode} {pop pop} ifelse
  exch FMS} bdef
/csm {1 dpi2point div -1 dpi2point div scale neg translate
 dup landscapeMode eq {pop -90 rotate}
  {rotateMode eq {90 rotate} if} ifelse} bdef
% line types: solid, dotted, dashed, dotdash
/SO { [] 0 setdash } bdef
/DO { [.5 dpi2point mul 4 dpi2point mul] 0 setdash } bdef
/DA { [6 dpi2point mul] 0 setdash } bdef
/DD { [.5 dpi2point mul 4 dpi2point mul 6 dpi2point mul 4
  dpi2point mul] 0 setdash } bdef
% macros for lines and objects
/L {lineto stroke} bdef
/MP {3 1 roll moveto 1 sub {rlineto} repeat} bdef
/AP {{rlineto} repeat} bdef
/PDlw -1 def
/W {/PDlw currentlinewidth def setlinewidth} def
/PP {closepath eofill} bdef
/DP {closepath stroke} bdef
/MR {4 -2 roll moveto dup  0 exch rlineto exch 0 rlineto
  neg 0 exch rlineto closepath} bdef
/FR {MR stroke} bdef
/PR {MR fill} bdef
/L1i {{currentfile picstr readhexstring pop} image} bdef
/tMatrix matrix def
/MakeOval {newpath tMatrix currentmatrix pop translate scale
0 0 1 0 360 arc tMatrix setmatrix} bdef
/FO {MakeOval stroke} bdef
/PO {MakeOval fill} bdef
/PD {currentlinewidth 2 div 0 360 arc fill
   PDlw -1 eq not {PDlw w /PDlw -1 def} if} def
/FA {newpath tMatrix currentmatrix pop translate scale
  0 0 1 5 -2 roll arc tMatrix setmatrix stroke} bdef
/PA {newpath tMatrix currentmatrix pop	translate 0 0 moveto scale
  0 0 1 5 -2 roll arc closepath tMatrix setmatrix fill} bdef
/FAn {newpath tMatrix currentmatrix pop translate scale
  0 0 1 5 -2 roll arcn tMatrix setmatrix stroke} bdef
/PAn {newpath tMatrix currentmatrix pop translate 0 0 moveto scale
  0 0 1 5 -2 roll arcn closepath tMatrix setmatrix fill} bdef
/vradius 0 def /hradius 0 def /lry 0 def
/lrx 0 def /uly 0 def /ulx 0 def /rad 0 def
/MRR {/vradius xdef /hradius xdef /lry xdef /lrx xdef /uly xdef
  /ulx xdef newpath tMatrix currentmatrix pop ulx hradius add uly
  vradius add translate hradius vradius scale 0 0 1 180 270 arc 
  tMatrix setmatrix lrx hradius sub uly vradius add translate
  hradius vradius scale 0 0 1 270 360 arc tMatrix setmatrix
  lrx hradius sub lry vradius sub translate hradius vradius scale
  0 0 1 0 90 arc tMatrix setmatrix ulx hradius add lry vradius sub
  translate hradius vradius scale 0 0 1 90 180 arc tMatrix setmatrix
  closepath} bdef
/FRR {MRR stroke } bdef
/PRR {MRR fill } bdef
/MlrRR {/lry xdef /lrx xdef /uly xdef /ulx xdef /rad lry uly sub 2 div def
  newpath tMatrix currentmatrix pop ulx rad add uly rad add translate
  rad rad scale 0 0 1 90 270 arc tMatrix setmatrix lrx rad sub lry rad
  sub translate rad rad scale 0 0 1 270 90 arc tMatrix setmatrix
  closepath} bdef
/FlrRR {MlrRR stroke } bdef
/PlrRR {MlrRR fill } bdef
/MtbRR {/lry xdef /lrx xdef /uly xdef /ulx xdef /rad lrx ulx sub 2 div def
  newpath tMatrix currentmatrix pop ulx rad add uly rad add translate
  rad rad scale 0 0 1 180 360 arc tMatrix setmatrix lrx rad sub lry rad
  sub translate rad rad scale 0 0 1 0 180 arc tMatrix setmatrix
  closepath} bdef
/FtbRR {MtbRR stroke } bdef
/PtbRR {MtbRR fill } bdef
/stri 6 array def /dtri 6 array def
/smat 6 array def /dmat 6 array def
/tmat1 6 array def /tmat2 6 array def /dif 3 array def
/asub {/ind2 exch def /ind1 exch def dup dup
  ind1 get exch ind2 get sub exch } bdef
/tri_to_matrix {
  2 0 asub 3 1 asub 4 0 asub 5 1 asub
  dup 0 get exch 1 get 7 -1 roll astore } bdef
/compute_transform {
  dmat dtri tri_to_matrix tmat1 invertmatrix 
  smat stri tri_to_matrix tmat2 concatmatrix } bdef
/ds {stri astore pop} bdef
/dt {dtri astore pop} bdef
/db {2 copy /cols xdef /rows xdef mul dup 3 mul string
  currentfile 
  3 index 0 eq {/ASCIIHexDecode filter}
  {/ASCII85Decode filter 3 index 2 eq {/RunLengthDecode filter} if }
  ifelse exch readstring pop
  dup 0 3 index getinterval /rbmap xdef
  dup 2 index dup getinterval /gbmap xdef
  1 index dup 2 mul exch getinterval /bbmap xdef pop pop}bdef
/it {gs np dtri aload pop moveto lineto lineto cp c
  cols rows 8 compute_transform 
  rbmap gbmap bbmap true 3 colorimage gr}bdef
/il {newpath moveto lineto stroke}bdef
currentdict end def
%%EndProlog

%%BeginSetup
MathWorks begin

0 cap

end
%%EndSetup

%%Page: 1 1
%%BeginPageSetup
%%PageBoundingBox:    96   238   515   553
MathWorks begin
bpage
%%EndPageSetup

%%BeginObject: obj1
bplot

/dpi2point 12 def
portraitMode 1152 6636 csm

    0     0  5039  3780 rc
85 dict begin %Colortable dictionary
/c0 { 0.000000 0.000000 0.000000 sr} bdef
/c1 { 1.000000 1.000000 1.000000 sr} bdef
/c2 { 0.900000 0.000000 0.000000 sr} bdef
/c3 { 0.000000 0.820000 0.000000 sr} bdef
/c4 { 0.000000 0.000000 0.800000 sr} bdef
/c5 { 0.910000 0.820000 0.320000 sr} bdef
/c6 { 1.000000 0.260000 0.820000 sr} bdef
/c7 { 0.000000 0.820000 0.820000 sr} bdef
c0
1 j
1 sg
   0    0 5040 3781 rf
6 w
0 3044 3905 0 0 -3044 655 3327 4 MP
PP
-3905 0 0 3044 3905 0 0 -3044 655 3327 5 MP stroke
4 w
DO
0 sg
 655 3327 mt  655  283 L
 655  283 mt  655  283 L
1436 3327 mt 1436  283 L
1436  283 mt 1436  283 L
2217 3327 mt 2217  283 L
2217  283 mt 2217  283 L
2998 3327 mt 2998  283 L
2998  283 mt 2998  283 L
3779 3327 mt 3779  283 L
3779  283 mt 3779  283 L
4560 3327 mt 4560  283 L
4560  283 mt 4560  283 L
 655 3327 mt 4560 3327 L
4560 3327 mt 4560 3327 L
 655 2312 mt 4560 2312 L
4560 2312 mt 4560 2312 L
 655 1297 mt 4560 1297 L
4560 1297 mt 4560 1297 L
 655  283 mt 4560  283 L
4560  283 mt 4560  283 L
SO
6 w
 655  283 mt 4560  283 L
 655 3327 mt 4560 3327 L
4560 3327 mt 4560  283 L
 655 3327 mt  655  283 L
 655 3327 mt 4560 3327 L
 655 3327 mt  655  283 L
 655 3327 mt  655 3287 L
 655  283 mt  655  322 L
%%IncludeResource: font Helvetica
/Helvetica /WindowsLatin1Encoding 192 FMSR

 602 3539 mt 
(0) s
1436 3327 mt 1436 3287 L
1436  283 mt 1436  322 L
1383 3539 mt 
(5) s
2217 3327 mt 2217 3287 L
2217  283 mt 2217  322 L
2111 3539 mt 
(10) s
2998 3327 mt 2998 3287 L
2998  283 mt 2998  322 L
2892 3539 mt 
(15) s
3779 3327 mt 3779 3287 L
3779  283 mt 3779  322 L
3673 3539 mt 
(20) s
4560 3327 mt 4560 3287 L
4560  283 mt 4560  322 L
4454 3539 mt 
(25) s
 655 3327 mt  694 3327 L
4560 3327 mt 4520 3327 L
 407 3398 mt 
(50) s
 655 2312 mt  694 2312 L
4560 2312 mt 4520 2312 L
 300 2383 mt 
(100) s
 655 1297 mt  694 1297 L
4560 1297 mt 4520 1297 L
 300 1368 mt 
(150) s
 655  283 mt  694  283 L
4560  283 mt 4520  283 L
 300  354 mt 
(200) s
 655  283 mt 4560  283 L
 655 3327 mt 4560 3327 L
4560 3327 mt 4560  283 L
 655 3327 mt  655  283 L
gs 655 283 3906 3045 rc
/c8 { 0.000000 0.000000 1.000000 sr} bdef
c8
157 -16 156 78 156 -43 156 -39 156 33 157 -2 156 -16 156 48 
156 -42 156 19 157 38 156 5 156 -32 156 28 156 18 157 -4 
156 -17 156 37 156 12 156 145 157 8 156 289 156 691 156 1534 
811 501 25 MP stroke
gr

c8
 775  501 mt  847  501 L
 811  465 mt  811  537 L
 931 2035 mt 1003 2035 L
 967 1999 mt  967 2071 L
1087 2726 mt 1159 2726 L
1123 2690 mt 1123 2762 L
1243 3015 mt 1315 3015 L
1279 2979 mt 1279 3051 L
1400 3023 mt 1472 3023 L
1436 2987 mt 1436 3059 L
1556 3168 mt 1628 3168 L
1592 3132 mt 1592 3204 L
1712 3180 mt 1784 3180 L
1748 3144 mt 1748 3216 L
1868 3217 mt 1940 3217 L
1904 3181 mt 1904 3253 L
2024 3200 mt 2096 3200 L
2060 3164 mt 2060 3236 L
2181 3196 mt 2253 3196 L
2217 3160 mt 2217 3232 L
2337 3214 mt 2409 3214 L
2373 3178 mt 2373 3250 L
2493 3242 mt 2565 3242 L
2529 3206 mt 2529 3278 L
2649 3210 mt 2721 3210 L
2685 3174 mt 2685 3246 L
2805 3215 mt 2877 3215 L
2841 3179 mt 2841 3251 L
2962 3253 mt 3034 3253 L
2998 3217 mt 2998 3289 L
3118 3272 mt 3190 3272 L
3154 3236 mt 3154 3308 L
3274 3230 mt 3346 3230 L
3310 3194 mt 3310 3266 L
3430 3278 mt 3502 3278 L
3466 3242 mt 3466 3314 L
3586 3262 mt 3658 3262 L
3622 3226 mt 3622 3298 L
3743 3260 mt 3815 3260 L
3779 3224 mt 3779 3296 L
3899 3293 mt 3971 3293 L
3935 3257 mt 3935 3329 L
4055 3254 mt 4127 3254 L
4091 3218 mt 4091 3290 L
4211 3211 mt 4283 3211 L
4247 3175 mt 4247 3247 L
4367 3289 mt 4439 3289 L
4403 3253 mt 4403 3325 L
4524 3273 mt 4596 3273 L
4560 3237 mt 4560 3309 L
 786  476 mt  836  526 L
 836  476 mt  786  526 L
 942 2010 mt  992 2060 L
 992 2010 mt  942 2060 L
1098 2701 mt 1148 2751 L
1148 2701 mt 1098 2751 L
1254 2990 mt 1304 3040 L
1304 2990 mt 1254 3040 L
1411 2998 mt 1461 3048 L
1461 2998 mt 1411 3048 L
1567 3143 mt 1617 3193 L
1617 3143 mt 1567 3193 L
1723 3155 mt 1773 3205 L
1773 3155 mt 1723 3205 L
1879 3192 mt 1929 3242 L
1929 3192 mt 1879 3242 L
2035 3175 mt 2085 3225 L
2085 3175 mt 2035 3225 L
2192 3171 mt 2242 3221 L
2242 3171 mt 2192 3221 L
2348 3189 mt 2398 3239 L
2398 3189 mt 2348 3239 L
2504 3217 mt 2554 3267 L
2554 3217 mt 2504 3267 L
2660 3185 mt 2710 3235 L
2710 3185 mt 2660 3235 L
2816 3190 mt 2866 3240 L
2866 3190 mt 2816 3240 L
2973 3228 mt 3023 3278 L
3023 3228 mt 2973 3278 L
3129 3247 mt 3179 3297 L
3179 3247 mt 3129 3297 L
3285 3205 mt 3335 3255 L
3335 3205 mt 3285 3255 L
3441 3253 mt 3491 3303 L
3491 3253 mt 3441 3303 L
3597 3237 mt 3647 3287 L
3647 3237 mt 3597 3287 L
3754 3235 mt 3804 3285 L
3804 3235 mt 3754 3285 L
3910 3268 mt 3960 3318 L
3960 3268 mt 3910 3318 L
4066 3229 mt 4116 3279 L
4116 3229 mt 4066 3279 L
4222 3186 mt 4272 3236 L
4272 3186 mt 4222 3236 L
4378 3264 mt 4428 3314 L
4428 3264 mt 4378 3314 L
4535 3248 mt 4585 3298 L
4585 3248 mt 4535 3298 L
gs 655 283 3906 3045 rc
/c9 { 1.000000 0.000000 0.000000 sr} bdef
c9
157 2 156 4 156 -11 156 8 156 -8 157 8 156 2 156 6 
156 2 156 6 157 6 156 4 156 3 156 32 156 -11 157 20 
156 3 156 11 156 28 156 51 157 107 156 257 156 671 156 1579 
811 477 25 MP stroke
gr

c9
  36   36  811  477 FO
  36   36  967 2056 FO
  36   36 1123 2727 FO
  36   36 1279 2984 FO
  36   36 1436 3091 FO
  36   36 1592 3142 FO
  36   36 1748 3170 FO
  36   36 1904 3181 FO
  36   36 2060 3184 FO
  36   36 2217 3204 FO
  36   36 2373 3193 FO
  36   36 2529 3225 FO
  36   36 2685 3228 FO
  36   36 2841 3232 FO
  36   36 2998 3238 FO
  36   36 3154 3244 FO
  36   36 3310 3246 FO
  36   36 3466 3252 FO
  36   36 3622 3254 FO
  36   36 3779 3262 FO
  36   36 3935 3254 FO
  36   36 4091 3262 FO
  36   36 4247 3251 FO
  36   36 4403 3255 FO
  36   36 4560 3257 FO
gs 655 283 3906 3045 rc
gr

0 sg
1737 3735 mt 
(Number of Iterations) s
 202 2457 mt  -90 rotate
(Objective value) s
90 rotate
%%IncludeResource: font Helvetica
/Helvetica /WindowsLatin1Encoding 120 FMSR

 638 3370 mt 
( ) s
4544  325 mt 
( ) s
1 sg
0 500 1440 0 0 -500 3061 843 4 MP
PP
-1440 0 0 500 1440 0 0 -500 3061 843 5 MP stroke
4 w
DO
SO
6 w
0 sg
3061  343 mt 4501  343 L
3061  843 mt 4501  843 L
4501  843 mt 4501  343 L
3061  843 mt 3061  343 L
3061  843 mt 4501  843 L
3061  843 mt 3061  343 L
3061  343 mt 4501  343 L
3061  843 mt 4501  843 L
4501  843 mt 4501  343 L
3061  843 mt 3061  343 L
%%IncludeResource: font Helvetica
/Helvetica /WindowsLatin1Encoding 192 FMSR

3538  546 mt 
(Mini-batch) s
gs 3061 343 1441 501 rc
c8
367 0 3134 477 2 MP stroke
gs 3244 404 147 147 rc
3281  477 mt 3353  477 L
3317  441 mt 3317  513 L
3292  452 mt 3342  502 L
3342  452 mt 3292  502 L
gr

gr

c8
0 sg
3538  777 mt 
(Batch) s
gs 3061 343 1441 501 rc
c9
367 0 3134 708 2 MP stroke
gs 3244 635 147 147 rc
  36   36 3317  708 FO
gr

gr

c9

end %%Color Dict

eplot
%%EndObject

epage
end

showpage

%%Trailer
%%EOF
