bird.n.01	
58
2006656
1592084
1537544
2013706
1560419
1798484
1531178
2037110
1820546
1855672
2007558
1530575
1795545
2051845
1558993
1824575
1514859
1860187
2009912
1806567
1796340
1855032
1843383
2025239
2002724
1807496
1817953
2058221
1616318
1843065
1534433
1833805
1601694
2033041
1614925
2011460
1818515
1797886
1518878
1828970
2018795
2028035
2017213
1829413
2002556
1582220
1819313
2012849
1622779
1580077
2018207
1847000
1532829
1608432
1514668
2027492
2009229
2056570
