clothing.n.01	
47
3026506
3710637
2667093
2892767
3124170
3980874
2865351
4479046
2963159
4370456
3630383
3787032
3325584
3710721
3450230
2916936
3127747
4371430
3595614
4584207
3770439
3379051
4350905
3763968
3617480
2807133
4259630
2883205
3404251
4532106
3775071
2669723
4254777
3594734
2869837
4325704
3188531
3623198
4591157
4136333
4209133
2730930
3866082
2837789
2817516
3534580
3877472
